{
  "success": true,
  "data": {
    "favorites": [
      {
        "id": "550e8400-e29b-41d4-a716-446655440040",
        "type": "actor",
        "targetId": "550e8400-e29b-41d4-a716-446655440000",
        "actor": {
          "id": "550e8400-e29b-41d4-a716-446655440000",
          "name": "김배우",
          "imageUrl": "https://storage.k-culture.com/actors/550e8400-kim.jpg",
          "age": "20대 중반",
          "filmography": 15,
          "tags": ["섬세한연기", "청춘물감정"]
        },
        "createdAt": "2024-01-15T10:00:00Z"
      },
      {
        "id": "550e8400-e29b-41d4-a716-446655440041",
        "type": "actor",
        "targetId": "550e8400-e29b-41d4-a716-446655440002",
        "actor": {
          "id": "550e8400-e29b-41d4-a716-446655440002",
          "name": "이연기",
          "imageUrl": "https://storage.k-culture.com/actors/550e8400-lee.jpg",
          "age": "30대 초반",
          "filmography": 23,
          "tags": ["감성연기", "로맨스"]
        },
        "createdAt": "2024-01-10T14:30:00Z"
      }
    ],
    "pagination": {
      "page": 1,
      "limit": 10,
      "total": 12,
      "totalPages": 2
    }
  }
}
